^C:\COURSE\C PLUSPLUS TEST\DETECTIONTEST1\DETECTIONTEST1\STDAFX.CPP
/c /IC:\Software\opencvbuild\install\include /IC:\Software\opencvbuild\install\include\opencv /IC:\Software\opencvbuild\install\include\opencv2 /Zi /nologo /W3 /WX- /Od /D WIN32 /D _DEBUG /D _CONSOLE /D _UNICODE /D UNICODE /Gm /EHsc /RTC1 /MDd /GS /fp:precise /Zc:wchar_t /Zc:forScope /Yc"StdAfx.h" /Fp"x64\Debug\DetectionTest1.pch" /Fo"x64\Debug\\" /Fd"x64\Debug\vc100.pdb" /Gd /TP /errorReport:prompt C:\COURSE\C PLUSPLUS TEST\DETECTIONTEST1\DETECTIONTEST1\STDAFX.CPP
^C:\COURSE\C PLUSPLUS TEST\DETECTIONTEST1\DETECTIONTEST1\CANNYEDGEDETECTION.CPP
/c /IC:\Software\opencvbuild\install\include /IC:\Software\opencvbuild\install\include\opencv /IC:\Software\opencvbuild\install\include\opencv2 /Zi /nologo /W3 /WX- /Od /D WIN32 /D _DEBUG /D _CONSOLE /D _UNICODE /D UNICODE /Gm /EHsc /RTC1 /MDd /GS /fp:precise /Zc:wchar_t /Zc:forScope /Yu"StdAfx.h" /Fp"x64\Debug\DetectionTest1.pch" /Fo"x64\Debug\\" /Fd"x64\Debug\vc100.pdb" /Gd /TP /errorReport:prompt C:\COURSE\C PLUSPLUS TEST\DETECTIONTEST1\DETECTIONTEST1\CANNYEDGEDETECTION.CPP
^C:\COURSE\C PLUSPLUS TEST\DETECTIONTEST1\DETECTIONTEST1\DETECTIONTEST1.CPP
/c /IC:\Software\opencvbuild\install\include /IC:\Software\opencvbuild\install\include\opencv /IC:\Software\opencvbuild\install\include\opencv2 /Zi /nologo /W3 /WX- /Od /D WIN32 /D _DEBUG /D _CONSOLE /D _UNICODE /D UNICODE /Gm /EHsc /RTC1 /MDd /GS /fp:precise /Zc:wchar_t /Zc:forScope /Yu"StdAfx.h" /Fp"x64\Debug\DetectionTest1.pch" /Fo"x64\Debug\\" /Fd"x64\Debug\vc100.pdb" /Gd /TP /errorReport:prompt C:\COURSE\C PLUSPLUS TEST\DETECTIONTEST1\DETECTIONTEST1\DETECTIONTEST1.CPP
^C:\COURSE\C PLUSPLUS TEST\DETECTIONTEST1\DETECTIONTEST1\IOOPERATION.CPP
/c /IC:\Software\opencvbuild\install\include /IC:\Software\opencvbuild\install\include\opencv /IC:\Software\opencvbuild\install\include\opencv2 /Zi /nologo /W3 /WX- /Od /D WIN32 /D _DEBUG /D _CONSOLE /D _UNICODE /D UNICODE /Gm /EHsc /RTC1 /MDd /GS /fp:precise /Zc:wchar_t /Zc:forScope /Yu"StdAfx.h" /Fp"x64\Debug\DetectionTest1.pch" /Fo"x64\Debug\\" /Fd"x64\Debug\vc100.pdb" /Gd /TP /errorReport:prompt C:\COURSE\C PLUSPLUS TEST\DETECTIONTEST1\DETECTIONTEST1\IOOPERATION.CPP
^C:\COURSE\C PLUSPLUS TEST\DETECTIONTEST1\DETECTIONTEST1\LBP.CPP
/c /IC:\Software\opencvbuild\install\include /IC:\Software\opencvbuild\install\include\opencv /IC:\Software\opencvbuild\install\include\opencv2 /Zi /nologo /W3 /WX- /Od /D WIN32 /D _DEBUG /D _CONSOLE /D _UNICODE /D UNICODE /Gm /EHsc /RTC1 /MDd /GS /fp:precise /Zc:wchar_t /Zc:forScope /Yu"StdAfx.h" /Fp"x64\Debug\DetectionTest1.pch" /Fo"x64\Debug\\" /Fd"x64\Debug\vc100.pdb" /Gd /TP /errorReport:prompt C:\COURSE\C PLUSPLUS TEST\DETECTIONTEST1\DETECTIONTEST1\LBP.CPP
^C:\COURSE\C PLUSPLUS TEST\DETECTIONTEST1\DETECTIONTEST1\TESTINGPROCEDURE.CPP
/c /IC:\Software\opencvbuild\install\include /IC:\Software\opencvbuild\install\include\opencv /IC:\Software\opencvbuild\install\include\opencv2 /Zi /nologo /W3 /WX- /Od /D WIN32 /D _DEBUG /D _CONSOLE /D _UNICODE /D UNICODE /Gm /EHsc /RTC1 /MDd /GS /fp:precise /Zc:wchar_t /Zc:forScope /Yu"StdAfx.h" /Fp"x64\Debug\DetectionTest1.pch" /Fo"x64\Debug\\" /Fd"x64\Debug\vc100.pdb" /Gd /TP /errorReport:prompt C:\COURSE\C PLUSPLUS TEST\DETECTIONTEST1\DETECTIONTEST1\TESTINGPROCEDURE.CPP
^C:\COURSE\C PLUSPLUS TEST\DETECTIONTEST1\DETECTIONTEST1\VOIDDIVIDEIMAGEINTOBLOCKS.CPP
/c /IC:\Software\opencvbuild\install\include /IC:\Software\opencvbuild\install\include\opencv /IC:\Software\opencvbuild\install\include\opencv2 /Zi /nologo /W3 /WX- /Od /D WIN32 /D _DEBUG /D _CONSOLE /D _UNICODE /D UNICODE /Gm /EHsc /RTC1 /MDd /GS /fp:precise /Zc:wchar_t /Zc:forScope /Yu"StdAfx.h" /Fp"x64\Debug\DetectionTest1.pch" /Fo"x64\Debug\\" /Fd"x64\Debug\vc100.pdb" /Gd /TP /errorReport:prompt C:\COURSE\C PLUSPLUS TEST\DETECTIONTEST1\DETECTIONTEST1\VOIDDIVIDEIMAGEINTOBLOCKS.CPP
^C:\COURSE\C PLUSPLUS TEST\DETECTIONTEST1\DETECTIONTEST1\WININFO.CPP
/c /IC:\Software\opencvbuild\install\include /IC:\Software\opencvbuild\install\include\opencv /IC:\Software\opencvbuild\install\include\opencv2 /Zi /nologo /W3 /WX- /Od /D WIN32 /D _DEBUG /D _CONSOLE /D _UNICODE /D UNICODE /Gm /EHsc /RTC1 /MDd /GS /fp:precise /Zc:wchar_t /Zc:forScope /Yu"StdAfx.h" /Fp"x64\Debug\DetectionTest1.pch" /Fo"x64\Debug\\" /Fd"x64\Debug\vc100.pdb" /Gd /TP /errorReport:prompt C:\COURSE\C PLUSPLUS TEST\DETECTIONTEST1\DETECTIONTEST1\WININFO.CPP
