^C:\COURSE\C PLUSPLUS TEST\HOGTEST\HOGTEST\X64\DEBUG\HOGTEST.EXE.EMBED.MANIFEST.RES|C:\COURSE\C PLUSPLUS TEST\HOGTEST\HOGTEST\X64\DEBUG\HOGTEST.OBJ|C:\COURSE\C PLUSPLUS TEST\HOGTEST\HOGTEST\X64\DEBUG\IOOPERATION.OBJ|C:\COURSE\C PLUSPLUS TEST\HOGTEST\HOGTEST\X64\DEBUG\STDAFX.OBJ|C:\COURSE\C PLUSPLUS TEST\HOGTEST\HOGTEST\X64\DEBUG\TEST_IMGSHOW.OBJ
/ERRORREPORT:PROMPT /OUT:"C:\Course\C plusplus test\hogtest\x64\Debug\hogtest.exe" /INCREMENTAL /NOLOGO /LIBPATH:C:\Software\opencvbuild\install\x64\vc10\lib opencv_ml249d.lib opencv_calib3d249d.lib opencv_contrib249d.lib opencv_core249d.lib opencv_features2d249d.lib opencv_flann249d.lib opencv_gpu249d.lib opencv_highgui249d.lib opencv_imgproc249d.lib opencv_legacy249d.lib opencv_objdetect249d.lib opencv_ts249d.lib opencv_video249d.lib opencv_nonfree249d.lib opencv_ocl249d.lib opencv_photo249d.lib opencv_stitching249d.lib opencv_superres249d.lib opencv_videostab249d.lib opencv_objdetect249.lib opencv_ts249.lib opencv_video249.lib opencv_nonfree249.lib opencv_ocl249.lib opencv_photo249.lib opencv_stitching249.lib opencv_superres249.lib opencv_videostab249.lib opencv_calib3d249.lib opencv_contrib249.lib opencv_core249.lib opencv_features2d249.lib opencv_flann249.lib opencv_gpu249.lib opencv_highgui249.lib opencv_imgproc249.lib opencv_legacy249.lib opencv_ml249.lib kernel32.lib user32.lib gdi32.lib winspool.lib comdlg32.lib advapi32.lib shell32.lib ole32.lib oleaut32.lib uuid.lib odbc32.lib odbccp32.lib /MANIFEST /ManifestFile:"x64\Debug\hogtest.exe.intermediate.manifest" /MANIFESTUAC:"level='asInvoker' uiAccess='false'" /DEBUG /PDB:"C:\Course\C plusplus test\hogtest\x64\Debug\hogtest.pdb" /SUBSYSTEM:CONSOLE /TLBID:1 /DYNAMICBASE /NXCOMPAT /IMPLIB:"C:\Course\C plusplus test\hogtest\x64\Debug\hogtest.lib" /MACHINE:X64 x64\Debug\hogtest.exe.embed.manifest.res
x64\Debug\hogtest.obj
x64\Debug\IOOperation.obj
x64\Debug\stdafx.obj
x64\Debug\test_imgshow.obj
